…
   (a) What's the minimum life expectancy for each continent and each year? 
   (b) Add the corresponding country to the tibble, too. 
   (c) Arrange by min life expectancy.


```r
gapminder %>% 
  group_by(continent, year) %>% 
  summarize(min_life = min(lifeExp)) %>%
  arrange(min_life) %>%
  transmute(min_life_decade = round(min_life, -1))
```

```
## # A tibble: 60 x 2
## # Groups:   continent [5]
##    continent min_life_decade
##    <fct>               <dbl>
##  1 Africa                 20
##  2 Asia                   30
##  3 Africa                 30
##  4 Asia                   30
##  5 Asia                   30
##  6 Africa                 30
##  7 Asia                   30
##  8 Africa                 30
##  9 Asia                   30
## 10 Africa                 30
## # ... with 50 more rows
```
…
```r
psych::bfi %>%
  as_tibble() %>%
  select(A1:A5) %>%
  rowwise() %>%
  mutate(A_Mean = mean(c(A1, A2, A3, A4, A5), na.rm = TRUE))
```

```
## Source: local data frame [2,800 x 6]
## Groups: <by row>
## 
## # A tibble: 2,800 x 6
##       A1    A2    A3    A4    A5 A_Mean
##    <int> <int> <int> <int> <int>  <dbl>
##  1     2     4     3     4     4    3.4
##  2     2     4     5     2     5    3.6
##  3     5     4     5     4     4    4.4
##  4     4     4     6     5     5    4.8
##  5     2     3     3     4     5    3.4
##  6     6     6     5     6     5    5.6
##  7     2     5     5     3     5    4  
##  8     4     3     1     5     1    2.8
##  9     4     3     6     3     3    3.8
## 10     2     5     6     6     5    4.8
## # ... with 2,790 more rows
```
…
```r
psych::bfi %>%
  as_tibble() %>%
  select(C1:C5) %>%
  rowwise() %>%
  mutate(C_Mean = mean(c(C1, C2, C3, C4, C5), na.rm = TRUE), 
         C_SD = sd(c(C1, C2, C3, C4, C5), na.rm = TRUE), 
         C_Min = min(c(C1, C2, C3, C4, C5), na.rm = TRUE))
```

```
## Source: local data frame [2,800 x 8]
## Groups: <by row>
## 
## # A tibble: 2,800 x 8
##       C1    C2    C3    C4    C5 C_Mean  C_SD C_Min
##    <int> <int> <int> <int> <int>  <dbl> <dbl> <int>
##  1     2     3     3     4     4    3.2 0.837     2
##  2     5     4     4     3     4    4   0.707     3
##  3     4     5     4     2     5    4   1.22      2
##  4     4     4     3     5     5    4.2 0.837     3
##  5     4     4     5     3     2    3.6 1.14      2
##  6     6     6     6     1     3    4.4 2.30      1
##  7     5     4     4     2     3    3.6 1.14      2
##  8     3     2     4     2     4    3   1         2
##  9     6     6     3     4     5    4.8 1.30      3
## 10     6     5     6     2     1    4   2.35      1
## # ... with 2,790 more rows
```

Some functions are **vectorized**, so you don't need `rowwise()`. 
For example, `pmin()` computes the "parallel min" across the vectors it receives:


```r
psych::bfi %>%
  as_tibble() %>%
  select(C1:C5) %>%
  pmin()
```

```
## # A tibble: 2,800 x 5
##       C1    C2    C3    C4    C5
##    <int> <int> <int> <int> <int>
##  1     2     3     3     4     4
##  2     5     4     4     3     4
##  3     4     5     4     2     5
##  4     4     4     3     5     5
##  5     4     4     5     3     2
##  6     6     6     6     1     3
##  7     5     4     4     2     3
##  8     3     2     4     2     4
##  9     6     6     3     4     5
## 10     6     5     6     2     1
## # ... with 2,790 more rows
```
…
```
## # A tibble: 2,800 x 6
##    A_Mean C_Mean E_Mean N_Mean O_Mean education
##     <dbl>  <dbl>  <dbl>  <dbl>  <dbl>     <int>
##  1    3.4    3.2   3.4     2.8    3.8        NA
##  2    3.6    4     3       3.8    3.2        NA
##  3    4.4    4     3.8     3.6    3.6        NA
##  4    4.8    4.2   4       2.8    3.6        NA
##  5    3.4    3.6   3.6     3.2    3.2        NA
##  6    5.6    4.4   4       3      3.8         3
##  7    4      3.6   4.2     1.4    3.8        NA
##  8    2.8    3     3.2     4.2    3.4         2
##  9    3.8    4.8   3.75    3.6    5           1
## 10    4.8    4     3.6     4.2    3.6        NA
## # ... with 2,790 more rows
```
