…
   (a) What's the minimum life expectancy for each continent and each year? 
   (b) Add the corresponding country to the tibble, too. 
   (c) Arrange by min life expectancy.


```r
gapminder %>% 
  group_by(continent, year) %>% 
  summarize(min_life = min(lifeExp)) %>%
  arrange(min_life) %>%
  transmute(min_life_decade = round(min_life, -1))
```

```
## # A tibble: 60 x 2
## # Groups:   continent [5]
##    continent min_life_decade
##    <fct>               <dbl>
##  1 Africa                 20
##  2 Asia                   30
##  3 Africa                 30
##  4 Asia                   30
##  5 Asia                   30
##  6 Africa                 30
##  7 Asia                   30
##  8 Africa                 30
##  9 Asia                   30
## 10 Africa                 30
## # ... with 50 more rows
```
…
